%YAML 1.1
%TAG !u! tag:unity3d.com,2011:
--- !u!29 &1
OcclusionCullingSettings:
  m_ObjectHideFlags: 0
  serializedVersion: 2
  m_OcclusionBakeSettings:
    smallestOccluder: 5
    smallestHole: 0.25
    backfaceThreshold: 100
  m_SceneGUID: 00000000000000000000000000000000
  m_OcclusionCullingData: {fileID: 0}
--- !u!104 &2
RenderSettings:
  m_ObjectHideFlags: 0
  serializedVersion: 8
  m_Fog: 0
  m_FogColor: {r: 0.5, g: 0.5, b: 0.5, a: 1}
  m_FogMode: 3
  m_FogDensity: 0.01
  m_LinearFogStart: 0
  m_LinearFogEnd: 300
  m_AmbientSkyColor: {r: 0.212, g: 0.227, b: 0.259, a: 1}
  m_AmbientEquatorColor: {r: 0.114, g: 0.125, b: 0.133, a: 1}
  m_AmbientGroundColor: {r: 0.047, g: 0.043, b: 0.035, a: 1}
  m_AmbientIntensity: 1
  m_AmbientMode: 1
  m_SubtractiveShadowColor: {r: 0.42, g: 0.478, b: 0.627, a: 1}
  m_SkyboxMaterial: {fileID: 0}
  m_HaloStrength: 0.5
  m_FlareStrength: 1
  m_FlareFadeSpeed: 3
  m_HaloTexture: {fileID: 0}
  m_SpotCookie: {fileID: 10001, guid: 0000000000000000e000000000000000, type: 0}
  m_DefaultReflectionMode: 1
  m_DefaultReflectionResolution: 128
  m_ReflectionBounces: 1
  m_ReflectionIntensity: 1
  m_CustomReflection: {fileID: 0}
  m_Sun: {fileID: 0}
  m_IndirectSpecularColor: {r: 0, g: 0, b: 0, a: 1}
--- !u!157 &3
LightmapSettings:
  m_ObjectHideFlags: 0
  serializedVersion: 11
  m_GIWorkflowMode: 0
  m_GISettings:
    serializedVersion: 2
    m_BounceScale: 1
    m_IndirectOutputScale: 1
    m_AlbedoBoost: 1
    m_TemporalCoherenceThreshold: 1
    m_EnvironmentLightingMode: 0
    m_EnableBakedLightmaps: 0
    m_EnableRealtimeLightmaps: 0
  m_LightmapEditorSettings:
    serializedVersion: 9
    m_Resolution: 2
    m_BakeResolution: 40
    m_TextureWidth: 1024
    m_TextureHeight: 1024
    m_AO: 0
    m_AOMaxDistance: 1
    m_CompAOExponent: 0
    m_CompAOExponentDirect: 0
    m_Padding: 2
    m_LightmapParameters: {fileID: 0}
    m_LightmapsBakeMode: 1
    m_TextureCompression: 1
    m_FinalGather: 0
    m_FinalGatherFiltering: 1
    m_FinalGatherRayCount: 1024
    m_ReflectionCompression: 2
    m_MixedBakeMode: 1
    m_BakeBackend: 0
    m_PVRSampling: 1
    m_PVRDirectSampleCount: 32
    m_PVRSampleCount: 500
    m_PVRBounces: 2
    m_PVRFilterTypeDirect: 0
    m_PVRFilterTypeIndirect: 0
    m_PVRFilterTypeAO: 0
    m_PVRFilteringMode: 0
    m_PVRCulling: 1
    m_PVRFilteringGaussRadiusDirect: 1
    m_PVRFilteringGaussRadiusIndirect: 5
    m_PVRFilteringGaussRadiusAO: 2
    m_PVRFilteringAtrousPositionSigmaDirect: 0.5
    m_PVRFilteringAtrousPositionSigmaIndirect: 2
    m_PVRFilteringAtrousPositionSigmaAO: 1
  m_LightingDataAsset: {fileID: 0}
  m_UseShadowmask: 0
--- !u!196 &4
NavMeshSettings:
  serializedVersion: 2
  m_ObjectHideFlags: 0
  m_BuildSettings:
    serializedVersion: 2
    agentTypeID: 0
    agentRadius: 0.5
    agentHeight: 2
    agentSlope: 45
    agentClimb: 0.4
    ledgeDropHeight: 0
    maxJumpAcrossDistance: 0
    minRegionArea: 2
    manualCellSize: 0
    cellSize: 0.16666667
    manualTileSize: 0
    tileSize: 256
    accuratePlacement: 0
    debug:
      m_Flags: 0
  m_NavMeshData: {fileID: 0}
--- !u!1 &81832687
GameObject:
  m_ObjectHideFlags: 0
  m_PrefabParentObject: {fileID: 0}
  m_PrefabInternal: {fileID: 0}
  serializedVersion: 5
  m_Component:
  - component: {fileID: 81832692}
  - component: {fileID: 81832691}
  - component: {fileID: 81832690}
  - component: {fileID: 81832689}
  - component: {fileID: 81832688}
  m_Layer: 0
  m_Name: Main Camera
  m_TagString: MainCamera
  m_Icon: {fileID: 0}
  m_NavMeshLayer: 0
  m_StaticEditorFlags: 0
  m_IsActive: 1
--- !u!81 &81832688
AudioListener:
  m_ObjectHideFlags: 0
  m_PrefabParentObject: {fileID: 0}
  m_PrefabInternal: {fileID: 0}
  m_GameObject: {fileID: 81832687}
  m_Enabled: 1
--- !u!124 &81832689
Behaviour:
  m_ObjectHideFlags: 0
  m_PrefabParentObject: {fileID: 0}
  m_PrefabInternal: {fileID: 0}
  m_GameObject: {fileID: 81832687}
  m_Enabled: 1
--- !u!92 &81832690
Behaviour:
  m_ObjectHideFlags: 0
  m_PrefabParentObject: {fileID: 0}
  m_PrefabInternal: {fileID: 0}
  m_GameObject: {fileID: 81832687}
  m_Enabled: 1
--- !u!20 &81832691
Camera:
  m_ObjectHideFlags: 0
  m_PrefabParentObject: {fileID: 0}
  m_PrefabInternal: {fileID: 0}
  m_GameObject: {fileID: 81832687}
  m_Enabled: 1
  serializedVersion: 2
  m_ClearFlags: 1
  m_BackGroundColor: {r: 0.09775086, g: 0.10282782, b: 0.11764705, a: 1}
  m_NormalizedViewPortRect:
    serializedVersion: 2
    x: 0
    y: 0
    width: 1
    height: 1
  near clip plane: 0.3
  far clip plane: 1000
  field of view: 45
  orthographic: 0
  orthographic size: 5
  m_Depth: -1
  m_CullingMask:
    serializedVersion: 2
    m_Bits: 4294967295
  m_RenderingPath: -1
  m_TargetTexture: {fileID: 0}
  m_TargetDisplay: 0
  m_TargetEye: 3
  m_HDR: 0
  m_AllowMSAA: 1
  m_ForceIntoRT: 0
  m_OcclusionCulling: 1
  m_StereoConvergence: 10
  m_StereoSeparation: 0.022
--- !u!4 &81832692
Transform:
  m_ObjectHideFlags: 0
  m_PrefabParentObject: {fileID: 0}
  m_PrefabInternal: {fileID: 0}
  m_GameObject: {fileID: 81832687}
  m_LocalRotation: {x: -0.0008089617, y: 0.9539007, z: -0.30011034, w: -0.0025743619}
  m_LocalPosition: {x: 1.1458, y: 18.1096, z: 10.7016}
  m_LocalScale: {x: 1, y: 1, z: 1}
  m_Children: []
  m_Father: {fileID: 0}
  m_RootOrder: 3
  m_LocalEulerAnglesHint: {x: 0, y: 0, z: 0}
--- !u!1 &86983818
GameObject:
  m_ObjectHideFlags: 0
  m_PrefabParentObject: {fileID: 158510, guid: 6b45f765d87279f418a93f735bb6d910, type: 2}
  m_PrefabInternal: {fileID: 795760633}
  serializedVersion: 5
  m_Component:
  - component: {fileID: 86983822}
  - component: {fileID: 86983821}
  - component: {fileID: 86983820}
  - component: {fileID: 86983819}
  m_Layer: 0
  m_Name: ElectricPostC
  m_TagString: Untagged
  m_Icon: {fileID: 0}
  m_NavMeshLayer: 0
  m_StaticEditorFlags: 0
  m_IsActive: 1
--- !u!65 &86983819
BoxCollider:
  m_ObjectHideFlags: 0
  m_PrefabParentObject: {fileID: 6577846, guid: 6b45f765d87279f418a93f735bb6d910,
    type: 2}
  m_PrefabInternal: {fileID: 795760633}
  m_GameObject: {fileID: 86983818}
  m_Material: {fileID: 0}
  m_IsTrigger: 0
  m_Enabled: 1
  serializedVersion: 2
  m_Size: {x: 1.0107372, y: 5.3022165, z: 0.19242553}
  m_Center: {x: 0.0006826222, y: 2.6511083, z: 0}
--- !u!23 &86983820
MeshRenderer:
  m_ObjectHideFlags: 0
  m_PrefabParentObject: {fileID: 2340216, guid: 6b45f765d87279f418a93f735bb6d910,
    type: 2}
  m_PrefabInternal: {fileID: 795760633}
  m_GameObject: {fileID: 86983818}
  m_Enabled: 1
  m_CastShadows: 1
  m_ReceiveShadows: 1
  m_DynamicOccludee: 1
  m_MotionVectors: 1
  m_LightProbeUsage: 1
  m_ReflectionProbeUsage: 1
  m_Materials:
  - {fileID: 2100000, guid: b19b73061274e0f469cbc2aa34f931cd, type: 2}
  m_StaticBatchInfo:
    firstSubMesh: 0
    subMeshCount: 0
  m_StaticBatchRoot: {fileID: 0}
  m_ProbeAnchor: {fileID: 0}
  m_LightProbeVolumeOverride: {fileID: 0}
  m_ScaleInLightmap: 1
  m_PreserveUVs: 0
  m_IgnoreNormalsForChartDetection: 0
  m_ImportantGI: 0
  m_StitchLightmapSeams: 0
  m_SelectedEditorRenderState: 3
  m_MinimumChartSize: 4
  m_AutoUVMaxDistance: 0.5
  m_AutoUVMaxAngle: 89
  m_LightmapParameters: {fileID: 0}
  m_SortingLayerID: 0
  m_SortingLayer: 0
  m_SortingOrder: 0
--- !u!33 &86983821
MeshFilter:
  m_ObjectHideFlags: 0
  m_PrefabParentObject: {fileID: 3313088, guid: 6b45f765d87279f418a93f735bb6d910,
    type: 2}
  m_PrefabInternal: {fileID: 795760633}
  m_GameObject: {fileID: 86983818}
  m_Mesh: {fileID: 4300000, guid: 676d5d0540257c3498e3b5db14b94b4c, type: 3}
--- !u!4 &86983822
Transform:
  m_ObjectHideFlags: 0
  m_PrefabParentObject: {fileID: 468084, guid: 6b45f765d87279f418a93f735bb6d910, type: 2}
  m_PrefabInternal: {fileID: 795760633}
  m_GameObject: {fileID: 86983818}
  m_LocalRotation: {x: 0.000000021855694, y: 0, z: -0, w: 1}
  m_LocalPosition: {x: 14.38, y: 0, z: -9.5}
  m_LocalScale: {x: 1, y: 1, z: 1}
  m_Children: []
  m_Father: {fileID: 0}
  m_RootOrder: 2
  m_LocalEulerAnglesHint: {x: 0, y: 0, z: 0}
--- !u!1001 &294337049
Prefab:
  m_ObjectHideFlags: 0
  serializedVersion: 2
  m_Modification:
    m_TransformParent: {fileID: 0}
    m_Modifications:
    - target: {fileID: 495036, guid: aed502683c9d9b540b8e9f801bfebaf8, type: 2}
      propertyPath: m_LocalPosition.x
      value: 9.19999981
      objectReference: {fileID: 0}
    - target: {fileID: 495036, guid: aed502683c9d9b540b8e9f801bfebaf8, type: 2}
      propertyPath: m_LocalPosition.y
      value: 0
      objectReference: {fileID: 0}
    - target: {fileID: 495036, guid: aed502683c9d9b540b8e9f801bfebaf8, type: 2}
      propertyPath: m_LocalPosition.z
      value: -9.60000038
      objectReference: {fileID: 0}
    - target: {fileID: 495036, guid: aed502683c9d9b540b8e9f801bfebaf8, type: 2}
      propertyPath: m_LocalRotation.x
      value: 2.18556941e-08
      objectReference: {fileID: 0}
    - target: {fileID: 495036, guid: aed502683c9d9b540b8e9f801bfebaf8, type: 2}
      propertyPath: m_LocalRotation.y
      value: 0
      objectReference: {fileID: 0}
    - target: {fileID: 495036, guid: aed502683c9d9b540b8e9f801bfebaf8, type: 2}
      propertyPath: m_LocalRotation.z
      value: -0
      objectReference: {fileID: 0}
    - target: {fileID: 495036, guid: aed502683c9d9b540b8e9f801bfebaf8, type: 2}
      propertyPath: m_LocalRotation.w
      value: 1
      objectReference: {fileID: 0}
    - target: {fileID: 495036, guid: aed502683c9d9b540b8e9f801bfebaf8, type: 2}
      propertyPath: m_RootOrder
      value: 1
      objectReference: {fileID: 0}
    m_RemovedComponents: []
  m_ParentPrefab: {fileID: 100100000, guid: aed502683c9d9b540b8e9f801bfebaf8, type: 2}
  m_RootGameObject: {fileID: 994739509}
  m_IsPrefabParent: 0
--- !u!1001 &795760633
Prefab:
  m_ObjectHideFlags: 0
  serializedVersion: 2
  m_Modification:
    m_TransformParent: {fileID: 0}
    m_Modifications:
    - target: {fileID: 468084, guid: 6b45f765d87279f418a93f735bb6d910, type: 2}
      propertyPath: m_LocalPosition.x
      value: 14.3800001
      objectReference: {fileID: 0}
    - target: {fileID: 468084, guid: 6b45f765d87279f418a93f735bb6d910, type: 2}
      propertyPath: m_LocalPosition.y
      value: 0
      objectReference: {fileID: 0}
    - target: {fileID: 468084, guid: 6b45f765d87279f418a93f735bb6d910, type: 2}
      propertyPath: m_LocalPosition.z
      value: -9.5
      objectReference: {fileID: 0}
    - target: {fileID: 468084, guid: 6b45f765d87279f418a93f735bb6d910, type: 2}
      propertyPath: m_LocalRotation.x
      value: 2.18556941e-08
      objectReference: {fileID: 0}
    - target: {fileID: 468084, guid: 6b45f765d87279f418a93f735bb6d910, type: 2}
      propertyPath: m_LocalRotation.y
      value: 0
      objectReference: {fileID: 0}
    - target: {fileID: 468084, guid: 6b45f765d87279f418a93f735bb6d910, type: 2}
      propertyPath: m_LocalRotation.z
      value: -0
      objectReference: {fileID: 0}
    - target: {fileID: 468084, guid: 6b45f765d87279f418a93f735bb6d910, type: 2}
      propertyPath: m_LocalRotation.w
      value: 1
      objectReference: {fileID: 0}
    - target: {fileID: 468084, guid: 6b45f765d87279f418a93f735bb6d910, type: 2}
      propertyPath: m_RootOrder
      value: 2
      objectReference: {fileID: 0}
    m_RemovedComponents: []
  m_ParentPrefab: {fileID: 100100000, guid: 6b45f765d87279f418a93f735bb6d910, type: 2}
  m_RootGameObject: {fileID: 86983818}
  m_IsPrefabParent: 0
--- !u!1 &898721624
GameObject:
  m_ObjectHideFlags: 0
  m_PrefabParentObject: {fileID: 0}
  m_PrefabInternal: {fileID: 0}
  serializedVersion: 5
  m_Component:
  - component: {fileID: 898721626}
  - component: {fileID: 898721625}
  m_Layer: 0
  m_Name: Directional Light
  m_TagString: Untagged
  m_Icon: {fileID: 0}
  m_NavMeshLayer: 0
  m_StaticEditorFlags: 0
  m_IsActive: 1
--- !u!108 &898721625
Light:
  m_ObjectHideFlags: 0
  m_PrefabParentObject: {fileID: 0}
  m_PrefabInternal: {fileID: 0}
  m_GameObject: {fileID: 898721624}
  m_Enabled: 1
  serializedVersion: 8
  m_Type: 1
  m_Color: {r: 1, g: 0.95686275, b: 0.8392157, a: 1}
  m_Intensity: 1
  m_Range: 10
  m_SpotAngle: 30
  m_CookieSize: 10
  m_Shadows:
    m_Type: 2
    m_Resolution: -1
    m_CustomResolution: -1
    m_Strength: 1
    m_Bias: 0.05
    m_NormalBias: 0.4
    m_NearPlane: 0.2
  m_Cookie: {fileID: 0}
  m_DrawHalo: 0
  m_Flare: {fileID: 0}
  m_RenderMode: 0
  m_CullingMask:
    serializedVersion: 2
    m_Bits: 4294967295
  m_Lightmapping: 4
  m_AreaSize: {x: 1, y: 1}
  m_BounceIntensity: 1
  m_ColorTemperature: 6570
  m_UseColorTemperature: 0
  m_ShadowRadius: 0
  m_ShadowAngle: 0
--- !u!4 &898721626
Transform:
  m_ObjectHideFlags: 0
  m_PrefabParentObject: {fileID: 0}
  m_PrefabInternal: {fileID: 0}
  m_GameObject: {fileID: 898721624}
  m_LocalRotation: {x: 0.40821794, y: -0.23456973, z: 0.109381676, w: 0.87542605}
  m_LocalPosition: {x: 0, y: 3, z: 0}
  m_LocalScale: {x: 1, y: 1, z: 1}
  m_Children: []
  m_Father: {fileID: 0}
  m_RootOrder: 4
  m_LocalEulerAnglesHint: {x: 0, y: 0, z: 0}
--- !u!1001 &939759730
Prefab:
  m_ObjectHideFlags: 0
  serializedVersion: 2
  m_Modification:
    m_TransformParent: {fileID: 0}
    m_Modifications:
    - target: {fileID: 407154, guid: 64d88e2d5b08483419c0a8dee1d694dd, type: 2}
      propertyPath: m_LocalPosition.x
      value: 3.19000006
      objectReference: {fileID: 0}
    - target: {fileID: 407154, guid: 64d88e2d5b08483419c0a8dee1d694dd, type: 2}
      propertyPath: m_LocalPosition.y
      value: 0
      objectReference: {fileID: 0}
    - target: {fileID: 407154, guid: 64d88e2d5b08483419c0a8dee1d694dd, type: 2}
      propertyPath: m_LocalPosition.z
      value: -9
      objectReference: {fileID: 0}
    - target: {fileID: 407154, guid: 64d88e2d5b08483419c0a8dee1d694dd, type: 2}
      propertyPath: m_LocalRotation.x
      value: 2.18556941e-08
      objectReference: {fileID: 0}
    - target: {fileID: 407154, guid: 64d88e2d5b08483419c0a8dee1d694dd, type: 2}
      propertyPath: m_LocalRotation.y
      value: 0
      objectReference: {fileID: 0}
    - target: {fileID: 407154, guid: 64d88e2d5b08483419c0a8dee1d694dd, type: 2}
      propertyPath: m_LocalRotation.z
      value: -0
      objectReference: {fileID: 0}
    - target: {fileID: 407154, guid: 64d88e2d5b08483419c0a8dee1d694dd, type: 2}
      propertyPath: m_LocalRotation.w
      value: 1
      objectReference: {fileID: 0}
    - target: {fileID: 407154, guid: 64d88e2d5b08483419c0a8dee1d694dd, type: 2}
      propertyPath: m_RootOrder
      value: 0
      objectReference: {fileID: 0}
    m_RemovedComponents: []
  m_ParentPrefab: {fileID: 100100000, guid: 64d88e2d5b08483419c0a8dee1d694dd, type: 2}
  m_RootGameObject: {fileID: 1574866081}
  m_IsPrefabParent: 0
--- !u!1 &994739509
GameObject:
  m_ObjectHideFlags: 0
  m_PrefabParentObject: {fileID: 100848, guid: aed502683c9d9b540b8e9f801bfebaf8, type: 2}
  m_PrefabInternal: {fileID: 294337049}
  serializedVersion: 5
  m_Component:
  - component: {fileID: 994739513}
  - component: {fileID: 994739512}
  - component: {fileID: 994739511}
  - component: {fileID: 994739510}
  m_Layer: 0
  m_Name: Motor
  m_TagString: Untagged
  m_Icon: {fileID: 0}
  m_NavMeshLayer: 0
  m_StaticEditorFlags: 0
  m_IsActive: 1
--- !u!65 &994739510
BoxCollider:
  m_ObjectHideFlags: 0
  m_PrefabParentObject: {fileID: 6524910, guid: aed502683c9d9b540b8e9f801bfebaf8,
    type: 2}
  m_PrefabInternal: {fileID: 294337049}
  m_GameObject: {fileID: 994739509}
  m_Material: {fileID: 0}
  m_IsTrigger: 0
  m_Enabled: 1
  serializedVersion: 2
  m_Size: {x: 1.1551619, y: 1.9021007, z: 2.2515168}
  m_Center: {x: 0.00000014901161, y: 0.9559218, z: -0.000000059604645}
--- !u!23 &994739511
MeshRenderer:
  m_ObjectHideFlags: 0
  m_PrefabParentObject: {fileID: 2352786, guid: aed502683c9d9b540b8e9f801bfebaf8,
    type: 2}
  m_PrefabInternal: {fileID: 294337049}
  m_GameObject: {fileID: 994739509}
  m_Enabled: 1
  m_CastShadows: 1
  m_ReceiveShadows: 1
  m_DynamicOccludee: 1
  m_MotionVectors: 1
  m_LightProbeUsage: 1
  m_ReflectionProbeUsage: 1
  m_Materials:
  - {fileID: 2100000, guid: 94c056c09c8b69e4caf4f0d33b8a777b, type: 2}
  m_StaticBatchInfo:
    firstSubMesh: 0
    subMeshCount: 0
  m_StaticBatchRoot: {fileID: 0}
  m_ProbeAnchor: {fileID: 0}
  m_LightProbeVolumeOverride: {fileID: 0}
  m_ScaleInLightmap: 1
  m_PreserveUVs: 0
  m_IgnoreNormalsForChartDetection: 0
  m_ImportantGI: 0
  m_StitchLightmapSeams: 0
  m_SelectedEditorRenderState: 3
  m_MinimumChartSize: 4
  m_AutoUVMaxDistance: 0.5
  m_AutoUVMaxAngle: 89
  m_LightmapParameters: {fileID: 0}
  m_SortingLayerID: 0
  m_SortingLayer: 0
  m_SortingOrder: 0
--- !u!33 &994739512
MeshFilter:
  m_ObjectHideFlags: 0
  m_PrefabParentObject: {fileID: 3350018, guid: aed502683c9d9b540b8e9f801bfebaf8,
    type: 2}
  m_PrefabInternal: {fileID: 294337049}
  m_GameObject: {fileID: 994739509}
  m_Mesh: {fileID: 4300000, guid: 0ff2b3ee6f06aa0449ae461471fdddf7, type: 3}
--- !u!4 &994739513
Transform:
  m_ObjectHideFlags: 0
  m_PrefabParentObject: {fileID: 495036, guid: aed502683c9d9b540b8e9f801bfebaf8, type: 2}
  m_PrefabInternal: {fileID: 294337049}
  m_GameObject: {fileID: 994739509}
  m_LocalRotation: {x: 0.000000021855694, y: 0, z: -0, w: 1}
  m_LocalPosition: {x: 9.2, y: 0, z: -9.6}
  m_LocalScale: {x: 1, y: 1, z: 1}
  m_Children: []
  m_Father: {fileID: 0}
  m_RootOrder: 1
  m_LocalEulerAnglesHint: {x: 0, y: 0, z: 0}
--- !u!1 &1574866081
GameObject:
  m_ObjectHideFlags: 0
  m_PrefabParentObject: {fileID: 162060, guid: 64d88e2d5b08483419c0a8dee1d694dd, type: 2}
  m_PrefabInternal: {fileID: 939759730}
  serializedVersion: 5
  m_Component:
  - component: {fileID: 1574866085}
  - component: {fileID: 1574866084}
  - component: {fileID: 1574866083}
  - component: {fileID: 1574866082}
  m_Layer: 0
  m_Name: RailingA
  m_TagString: Untagged
  m_Icon: {fileID: 0}
  m_NavMeshLayer: 0
  m_StaticEditorFlags: 0
  m_IsActive: 1
--- !u!65 &1574866082
BoxCollider:
  m_ObjectHideFlags: 0
  m_PrefabParentObject: {fileID: 6598398, guid: 64d88e2d5b08483419c0a8dee1d694dd,
    type: 2}
  m_PrefabInternal: {fileID: 939759730}
  m_GameObject: {fileID: 1574866081}
  m_Material: {fileID: 0}
  m_IsTrigger: 0
  m_Enabled: 1
  serializedVersion: 2
  m_Size: {x: 2.6405573, y: 1.2341495, z: 0.49497402}
  m_Center: {x: 0, y: 0.6160599, z: 0.0000027790666}
--- !u!23 &1574866083
MeshRenderer:
  m_ObjectHideFlags: 0
  m_PrefabParentObject: {fileID: 2337818, guid: 64d88e2d5b08483419c0a8dee1d694dd,
    type: 2}
  m_PrefabInternal: {fileID: 939759730}
  m_GameObject: {fileID: 1574866081}
  m_Enabled: 1
  m_CastShadows: 1
  m_ReceiveShadows: 1
  m_DynamicOccludee: 1
  m_MotionVectors: 1
  m_LightProbeUsage: 1
  m_ReflectionProbeUsage: 1
  m_Materials:
  - {fileID: 2100000, guid: 17a5354482fb06346941947a5c1e88e6, type: 2}
  m_StaticBatchInfo:
    firstSubMesh: 0
    subMeshCount: 0
  m_StaticBatchRoot: {fileID: 0}
  m_ProbeAnchor: {fileID: 0}
  m_LightProbeVolumeOverride: {fileID: 0}
  m_ScaleInLightmap: 1
  m_PreserveUVs: 0
  m_IgnoreNormalsForChartDetection: 0
  m_ImportantGI: 0
  m_StitchLightmapSeams: 0
  m_SelectedEditorRenderState: 3
  m_MinimumChartSize: 4
  m_AutoUVMaxDistance: 0.5
  m_AutoUVMaxAngle: 89
  m_LightmapParameters: {fileID: 0}
  m_SortingLayerID: 0
  m_SortingLayer: 0
  m_SortingOrder: 0
--- !u!33 &1574866084
MeshFilter:
  m_ObjectHideFlags: 0
  m_PrefabParentObject: {fileID: 3372868, guid: 64d88e2d5b08483419c0a8dee1d694dd,
    type: 2}
  m_PrefabInternal: {fileID: 939759730}
  m_GameObject: {fileID: 1574866081}
  m_Mesh: {fileID: 4300000, guid: f6cfd9db11feb1b4a8448575304bd10f, type: 3}
--- !u!4 &1574866085
Transform:
  m_ObjectHideFlags: 0
  m_PrefabParentObject: {fileID: 407154, guid: 64d88e2d5b08483419c0a8dee1d694dd, type: 2}
  m_PrefabInternal: {fileID: 939759730}
  m_GameObject: {fileID: 1574866081}
  m_LocalRotation: {x: 0.000000021855694, y: 0, z: -0, w: 1}
  m_LocalPosition: {x: 3.19, y: 0, z: -9}
  m_LocalScale: {x: 1, y: 1, z: 1}
  m_Children: []
  m_Father: {fileID: 0}
  m_RootOrder: 0
  m_LocalEulerAnglesHint: {x: 0, y: 0, z: 0}
