%YAML 1.1
%TAG !u! tag:unity3d.com,2011:
--- !u!21 &2100000
Material:
  serializedVersion: 6
  m_ObjectHideFlags: 0
  m_PrefabParentObject: {fileID: 0}
  m_PrefabInternal: {fileID: 0}
  m_Name: CLoth
  m_Shader: {fileID: 10511, guid: 0000000000000000f000000000000000, type: 0}
  m_ShaderKeywords: 
  m_LightmapFlags: 5
  m_EnableInstancingVariants: 0
  m_DoubleSidedGI: 0
  m_CustomRenderQueue: -1
  stringTagMap: {}
  disabledShaderPasses: []
  m_SavedProperties:
    serializedVersion: 3
    m_TexEnvs:
    - _BumpMap:
        m_Texture: {fileID: 0}
        m_Scale: {x: 1, y: 1}
        m_Offset: {x: 0, y: 0}
    - _Cube:
        m_Texture: {fileID: 0}
        m_Scale: {x: 1, y: 1}
        m_Offset: {x: 0, y: 0}
    - _DetailAlbedoMap:
        m_Texture: {fileID: 0}
        m_Scale: {x: 1, y: 1}
        m_Offset: {x: 0, y: 0}
    - _DetailMask:
        m_Texture: {fileID: 0}
        m_Scale: {x: 1, y: 1}
        m_Offset: {x: 0, y: 0}
    - _DetailNormalMap:
        m_Texture: {fileID: 0}
        m_Scale: {x: 1, y: 1}
        m_Offset: {x: 0, y: 0}
    - _DetailTex:
        m_Texture: {fileID: 0}
        m_Scale: {x: 1, y: 1}
        m_Offset: {x: 0, y: 0}
    - _EmissionMap:
        m_Texture: {fileID: 0}
        m_Scale: {x: 1, y: 1}
        m_Offset: {x: 0, y: 0}
    - _GlossMap:
        m_Texture: {fileID: 0}
        m_Scale: {x: 1, y: 1}
        m_Offset: {x: 0, y: 0}
    - _Illum:
        m_Texture: {fileID: 0}
        m_Scale: {x: 1, y: 1}
        m_Offset: {x: 0, y: 0}
    - _MainTex:
        m_Texture: {fileID: 2800000, guid: 048f4bae2dbf5264bb452114111f4f0c, type: 3}
        m_Scale: {x: 1, y: 1}
        m_Offset: {x: 0, y: 0}
    - _MetallicGlossMap:
        m_Texture: {fileID: 0}
        m_Scale: {x: 1, y: 1}
        m_Offset: {x: 0, y: 0}
    - _OcclusionMap:
        m_Texture: {fileID: 0}
        m_Scale: {x: 1, y: 1}
        m_Offset: {x: 0, y: 0}
    - _ParallaxMap:
        m_Texture: {fileID: 0}
        m_Scale: {x: 1, y: 1}
        m_Offset: {x: 0, y: 0}
    - _ShadowOffset:
        m_Texture: {fileID: 0}
        m_Scale: {x: 1, y: 1}
        m_Offset: {x: 0, y: 0}
    - _SpecGlossMap:
        m_Texture: {fileID: 0}
        m_Scale: {x: 1, y: 1}
        m_Offset: {x: 0, y: 0}
    - _TranslucencyMap:
        m_Texture: {fileID: 0}
        m_Scale: {x: 1, y: 1}
        m_Offset: {x: 0, y: 0}
    m_Floats:
    - _AO: 5
    - _BaseLight: 0.5
    - _BumpScale: 1
    - _Cull: 2
    - _Cutoff: 0.5
    - _DetailNormalMapScale: 1
    - _DstBlend: 0
    - _Glossiness: 0.5
    - _InvFade: 3
    - _Metallic: 0
    - _Mode: 0
    - _Occlusion: 10
    - _OcclusionStrength: 1
    - _Parallax: 0.02
    - _Shininess: 0.12
    - _SquashAmount: 1
    - _SrcBlend: 1
    - _UVSec: 0
    - _WindQuality: 0
    - _ZWrite: 1
    m_Colors:
    - _Color: {r: 1, g: 1, b: 1, a: 1}
    - _EmisColor: {r: 0.2, g: 0.2, b: 0.2, a: 0}
    - _EmissionColor: {r: 0, g: 0, b: 0, a: 1}
    - _HueVariation: {r: 1, g: 1, b: 1, a: 0.1}
    - _ImageTexCoords0: {r: 0, g: 0, b: 0, a: 0}
    - _ImageTexCoords1: {r: 0, g: 0, b: 0, a: 0}
    - _ImageTexCoords10: {r: 0, g: 0, b: 0, a: 0}
    - _ImageTexCoords11: {r: 0, g: 0, b: 0, a: 0}
    - _ImageTexCoords12: {r: 0, g: 0, b: 0, a: 0}
    - _ImageTexCoords13: {r: 0, g: 0, b: 0, a: 0}
    - _ImageTexCoords14: {r: 0, g: 0, b: 0, a: 0}
    - _ImageTexCoords15: {r: 0, g: 0, b: 0, a: 0}
    - _ImageTexCoords16: {r: 0, g: 0, b: 0, a: 0}
    - _ImageTexCoords17: {r: 0, g: 0, b: 0, a: 0}
    - _ImageTexCoords18: {r: 0, g: 0, b: 0, a: 0}
    - _ImageTexCoords19: {r: 0, g: 0, b: 0, a: 0}
    - _ImageTexCoords2: {r: 0, g: 0, b: 0, a: 0}
    - _ImageTexCoords20: {r: 0, g: 0, b: 0, a: 0}
    - _ImageTexCoords21: {r: 0, g: 0, b: 0, a: 0}
    - _ImageTexCoords22: {r: 0, g: 0, b: 0, a: 0}
    - _ImageTexCoords23: {r: 0, g: 0, b: 0, a: 0}
    - _ImageTexCoords24: {r: 0, g: 0, b: 0, a: 0}
    - _ImageTexCoords25: {r: 0, g: 0, b: 0, a: 0}
    - _ImageTexCoords26: {r: 0, g: 0, b: 0, a: 0}
    - _ImageTexCoords27: {r: 0, g: 0, b: 0, a: 0}
    - _ImageTexCoords28: {r: 0, g: 0, b: 0, a: 0}
    - _ImageTexCoords29: {r: 0, g: 0, b: 0, a: 0}
    - _ImageTexCoords3: {r: 0, g: 0, b: 0, a: 0}
    - _ImageTexCoords30: {r: 0, g: 0, b: 0, a: 0}
    - _ImageTexCoords31: {r: 0, g: 0, b: 0, a: 0}
    - _ImageTexCoords4: {r: 0, g: 0, b: 0, a: 0}
    - _ImageTexCoords5: {r: 0, g: 0, b: 0, a: 0}
    - _ImageTexCoords6: {r: 0, g: 0, b: 0, a: 0}
    - _ImageTexCoords7: {r: 0, g: 0, b: 0, a: 0}
    - _ImageTexCoords8: {r: 0, g: 0, b: 0, a: 0}
    - _ImageTexCoords9: {r: 0, g: 0, b: 0, a: 0}
    - _InstanceData: {r: 0, g: 0, b: 0, a: 0}
    - _ReflectColor: {r: 1, g: 1, b: 1, a: 0.5}
    - _SpecColor: {r: 1, g: 1, b: 1, a: 1}
    - _TintColor: {r: 0.4852941, g: 0.4852941, b: 0.4852941, a: 1}
    - _TreeInfo0: {r: 0, g: 0, b: 0, a: 0}
    - _TreeInfo1: {r: 0, g: 0, b: 0, a: 0}
    - _TreeInfo2: {r: 0, g: 0, b: 0, a: 0}
    - _TreeInfo3: {r: 0, g: 0, b: 0, a: 0}
    - _TreeInstanceColor: {r: 1, g: 1, b: 1, a: 1}
    - _TreeInstanceScale: {r: 1, g: 1, b: 1, a: 1}
    - _TreeSize0: {r: 0, g: 0, b: 0, a: 0}
    - _TreeSize1: {r: 0, g: 0, b: 0, a: 0}
    - _TreeSize2: {r: 0, g: 0, b: 0, a: 0}
    - _TreeSize3: {r: 0, g: 0, b: 0, a: 0}
