%YAML 1.1
%TAG !u! tag:unity3d.com,2011:
--- !u!114 &11400000
MonoBehaviour:
  m_ObjectHideFlags: 0
  m_CorrespondingSourceObject: {fileID: 0}
  m_PrefabInstance: {fileID: 0}
  m_PrefabAsset: {fileID: 0}
  m_GameObject: {fileID: 0}
  m_Enabled: 1
  m_EditorHideFlags: 0
  m_Script: {fileID: 11500000, guid: 7d41887b1546f5c44ab54e7e65aad3bc, type: 3}
  m_Name: Avatar
  m_EditorClassIdentifier: 
  version: 3252
  materialsAndUVRects: []
  resultMaterials: []
  doMultiMaterial: 0
