%YAML 1.1
%TAG !u! tag:unity3d.com,2011:
--- !u!114 &11400000
MonoBehaviour:
  m_ObjectHideFlags: 0
  m_CorrespondingSourceObject: {fileID: 0}
  m_PrefabInstance: {fileID: 0}
  m_PrefabAsset: {fileID: 0}
  m_GameObject: {fileID: 0}
  m_Enabled: 1
  m_EditorHideFlags: 0
  m_Script: {fileID: 11500000, guid: d7e00e03ed572594c975b713415b7298, type: 3}
  m_Name: Generic car
  m_EditorClassIdentifier: 
  profileName: Generic car
  tag: Active Car
  debugAlwaysShowCast: 0
  debugShowCastOnHit: 0
  debugGUI: 0
  debugScene: 0
  nonPhysicalSimulation: 1
  useRuntimeColor: 0
  paint: {r: 0, g: 0, b: 0, a: 0}
  usePathDefaultDuration: 1
  lookForward: 1
  goingForward: 1
  CarBody: {fileID: 0}
  avoidingLayerName: avoidable
  avoidanceSenrosLength: 25
  avoidanceCriticalDistance: 17
  turningAvoidanceTreshold: 70
  debugHitDistance: 10
  engineSound: {fileID: 8300000, guid: 5230c93fde62d1441a41412f8daaa25b, type: 3}
